5524173772616947559b0200
53393f7a275b2458b10004a9
4f20563c17014f0001000399
4f5f64c13b555230ac000001
4f5f64c13b555230ac000008
52cf3382275b2451fb00039e
54ef8aef7261694c895b0300
4df3ce2bd85a53000100243b
506b3312446617000200024a
530ba0b5a09a6701380000ab
511294005c85615a61000082
56d6f872139b2166eb000ade
53e0f86b7261692d77b90000
4e96f6e23e43de00010050cb
4e96f7a9be2b4e0001003049